ex_hw/ex23/modelsim/transcript
# Compile of TourLogic_tb.sv was successful.
# Compile of TourLogic.sv was successful.
# 2 compiles, 0 failed with no errors.
# Compile of TourLogic_tb.sv was successful.
# Compile of TourLogicD.sv was successful with warnings.
# 2 compiles, 0 failed with no errors.
vsim -voptargs=+acc work.TourLogic_tb
# vsim -voptargs="+acc" work.TourLogic_tb 
# Start time: 09:58:13 on Nov 25,2024
# ** Note: (vsim-3813) Design is being optimized due to module recompilation...
# ** Warning: (vopt-10587) Some optimizations are turned off because the +acc switch is in effect. This will cause your simulation to run slowly. Please use -access/-debug to maintain needed visibility.
# ** Error (suppressible): I:/ece551/Project/team/knights-tour-551/ex_hw/ex23/TourLogic_tb.sv(97): (vopt-7063) Failed to find 'board' in hierarchical name 'iDUT.board'.
#         Region: TourLogic_tb
# ** Error (suppressible): I:/ece551/Project/team/knights-tour-551/ex_hw/ex23/TourLogic_tb.sv(106): (vopt-7063) Failed to find 'update_position' in hierarchical name 'iDUT.update_position'.
#         Region: TourLogic_tb
# Optimization failed
# ** Note: (vsim-12126) Error and warning message counts have been restored: Errors=2, Warnings=1.
# Error loading design
# End time: 09:58:17 on Nov 25,2024, Elapsed time: 0:00:04
# Errors: 2, Warnings: 6
# Compile of TourLogic_tb.sv was successful.
vsim -voptargs=+acc work.TourLogic_tb
# vsim -voptargs="+acc" work.TourLogic_tb 
# Start time: 10:00:01 on Nov 25,2024
# ** Note: (vsim-3812) Design is being optimized...
# ** Warning: (vopt-10587) Some optimizations are turned off because the +acc switch is in effect. This will cause your simulation to run slowly. Please use -access/-debug to maintain needed visibility.
# ** Error (suppressible): I:/ece551/Project/team/knights-tour-551/ex_hw/ex23/TourLogicD.sv(189): (vopt-7033) Variable 'curr_move' driven in a combinational block, may not be driven by any other process. See I:/ece551/Project/team/knights-tour-551/ex_hw/ex23/TourLogicD.sv(42).
# ** Error (suppressible): I:/ece551/Project/team/knights-tour-551/ex_hw/ex23/TourLogicD.sv(196): (vopt-7033) Variable 'visited' driven in a combinational block, may not be driven by any other process. See I:/ece551/Project/team/knights-tour-551/ex_hw/ex23/TourLogicD.sv(43).
# ** Warning: I:/ece551/Project/team/knights-tour-551/ex_hw/ex23/TourLogicD.sv(87): (vopt-2182) 'curr_move' might be read before written in always_comb or always @* block.
# Optimization failed
# ** Error: (vopt-2064) Compiler back-end code generation process terminated with code 12.
# ** Note: (vsim-12126) Error and warning message counts have been restored: Errors=3, Warnings=2.
# Error loading design
# End time: 10:00:05 on Nov 25,2024, Elapsed time: 0:00:04
# Errors: 3, Warnings: 4
vsim -voptargs=+acc work.TourLogic_tb
# vsim -voptargs="+acc" work.TourLogic_tb 
# Start time: 10:00:10 on Nov 25,2024
# ** Note: (vsim-3812) Design is being optimized...
# ** Warning: (vopt-10587) Some optimizations are turned off because the +acc switch is in effect. This will cause your simulation to run slowly. Please use -access/-debug to maintain needed visibility.
# ** Error (suppressible): I:/ece551/Project/team/knights-tour-551/ex_hw/ex23/TourLogicD.sv(189): (vopt-7033) Variable 'curr_move' driven in a combinational block, may not be driven by any other process. See I:/ece551/Project/team/knights-tour-551/ex_hw/ex23/TourLogicD.sv(42).
# ** Error (suppressible): I:/ece551/Project/team/knights-tour-551/ex_hw/ex23/TourLogicD.sv(196): (vopt-7033) Variable 'visited' driven in a combinational block, may not be driven by any other process. See I:/ece551/Project/team/knights-tour-551/ex_hw/ex23/TourLogicD.sv(43).
# ** Warning: I:/ece551/Project/team/knights-tour-551/ex_hw/ex23/TourLogicD.sv(87): (vopt-2182) 'curr_move' might be read before written in always_comb or always @* block.
# Optimization failed
# ** Error: (vopt-2064) Compiler back-end code generation process terminated with code 12.
# ** Note: (vsim-12126) Error and warning message counts have been restored: Errors=3, Warnings=2.
# Error loading design
# End time: 10:00:14 on Nov 25,2024, Elapsed time: 0:00:04
# Errors: 3, Warnings: 3
# Compile of TourLogic_tb.sv was successful.
# Compile of TourLogic.sv was successful.
# 2 compiles, 0 failed with no errors.
vsim -voptargs=+acc work.TourLogic_tb
# vsim -voptargs="+acc" work.TourLogic_tb 
# Start time: 10:01:02 on Nov 25,2024
# ** Note: (vsim-3812) Design is being optimized...
# ** Warning: (vopt-10587) Some optimizations are turned off because the +acc switch is in effect. This will cause your simulation to run slowly. Please use -access/-debug to maintain needed visibility.
# ** Note: (vopt-143) Recognized 1 FSM in module "TourLogic(fast)".
# ** Note: (vsim-12126) Error and warning message counts have been restored: Errors=0, Warnings=1.
# Loading sv_std.std
# Loading work.TourLogic_tb(fast)
# Loading work.TourLogic(fast)
add wave -position insertpoint sim:/TourLogic_tb/iDUT/*
run -all
# DEBUG: Board state updated
#  0   0   0   0   0  
#  0   0   0   0   0  
#  0   0   0   0   0  
#  0   0   0   0   0  
#  0   0   0   0   0  
# --------------------
# 
# DEBUG: Board state updated
#  0   0   0   0   0  
#  0   0   0   0   0  
#  0   0   0   0   0  
#  0   0   3   0   0  
#  1   0   0   0   0  
# --------------------
# 
# DEBUG: Board state updated
#  0   0   0   0   0  
#  0   0   0   0   0  
#  0   0   0   0   0  
#  0   0   3   0   0  
#  1   0   0   0   4  
# --------------------
# 
# DEBUG: Board state updated
#  0   0   0   0   0  
#  0   0   0   0   0  
#  0   0   0   5   0  
#  0   0   3   0   0  
#  1   0   0   0   4  
# --------------------
# 
# DEBUG: Board state updated
#  0   0   0   0   6  
#  0   0   0   0   0  
#  0   0   0   5   0  
#  0   0   3   0   0  
#  1   0   0   0   4  
# --------------------
# 
# DEBUG: Board state updated
#  0   0   0   0   6  
#  0   0   7   0   0  
#  0   0   0   5   0  
#  0   0   3   0   0  
#  1   0   0   0   4  
# --------------------
# 
# DEBUG: Board state updated
#  8   0   0   0   6  
#  0   0   7   0   0  
#  0   0   0   5   0  
#  0   0   3   0   0  
#  1   0   0   0   4  
# --------------------
# 
# DEBUG: Board state updated
#  8   0   0   0   6  
#  0   0   7   0   0  
#  0   9   0   5   0  
#  0   0   3   0   0  
#  1   0   0   0   4  
# --------------------
# 
# DEBUG: Board state updated
#  8   0   0   0   6  
#  0   0   7  10   0  
#  0   9   0   5   0  
#  0   0   3   0   0  
#  1   0   0   0   4  
# --------------------
# 
# DEBUG: Board state updated
#  8   0   0   0   6  
#  0   0   7  10   0  
#  0   9   0   5   0  
#  0   0   3   0  11  
#  1   0   0   0   4  
# --------------------
# 
# DEBUG: Board state updated
#  8   0   0   0   6  
#  0   0   7  10   0  
#  0   9   0   5   0  
#  0   0   3   0  11  
#  1   0  12   0   4  
# --------------------
# 
# DEBUG: Board state updated
#  8   0   0   0   6  
#  0   0   7  10   0  
#  0   9   0   5   0  
# 13   0   3   0  11  
#  1   0  12   0   4  
# --------------------
# 
# DEBUG: Board state updated
#  8   0   0   0   6  
#  0  14   7  10   0  
#  0   9   0   5   0  
# 13   0   3   0  11  
#  1   0  12   0   4  
# --------------------
# 
# DEBUG: Board state updated
#  8   0   0  15   6  
#  0  14   7  10   0  
#  0   9   0   5   0  
# 13   0   3   0  11  
#  1   0  12   0   4  
# --------------------
# 
# DEBUG: Board state updated
#  8   0   0  15   6  
#  0  14   7  10   0  
#  0   9   0   5  16  
# 13   0   3   0  11  
#  1   0  12   0   4  
# --------------------
# 
# DEBUG: Board state updated
#  8   0   0  15   6  
#  0  14   7  10   0  
#  0   9   0   5  16  
# 13   0   3   0  11  
#  1   0  12  17   4  
# --------------------
# 
# DEBUG: Board state updated
#  8   0   0  15   6  
#  0  14   7  10   0  
#  0   9   0   5  16  
# 13  18   3   0  11  
#  1   0  12  17   4  
# --------------------
# 
# DEBUG: Board state updated
#  8   0   0  15   6  
# 19  14   7  10   0  
#  0   9   0   5  16  
# 13  18   3   0  11  
#  1   0  12  17   4  
# --------------------
# 
# DEBUG: Board state updated
#  8   0  20  15   6  
# 19  14   7  10   0  
#  0   9   0   5  16  
# 13  18   3   0  11  
#  1   0  12  17   4  
# --------------------
# 
# DEBUG: Board state updated
#  8   0  20  15   6  
# 19  14   7  10  21  
#  0   9   0   5  16  
# 13  18   3   0  11  
#  1   0  12  17   4  
# --------------------
# 
# DEBUG: Board state updated
#  8   0  20  15   6  
# 19  14   7  10  21  
#  0   9   0   5  16  
# 13  18   3  22  11  
#  1   0  12  17   4  
# --------------------
# 
# DEBUG: Board state updated
#  8   0  20  15   6  
# 19  14   7  10  21  
#  0   9   0   5  16  
# 13  18   3  22  11  
#  1  23  12  17   4  
# --------------------
# 
# DEBUG: Board state updated
#  8   0  20  15   6  
# 19  14   7  10  21  
# 24   9   0   5  16  
# 13  18   3  22  11  
#  1  23  12  17   4  
# --------------------
# 
# DEBUG: Board state updated
#  8  25  20  15   6  
# 19  14   7  10  21  
# 24   9   0   5  16  
# 13  18   3  22  11  
#  1  23  12  17   4  
# --------------------
# 
# SUCCESS: Solution found starting at x=0, y=0.
#  8  25  20  15   6  
# 19  14   7  10  21  
# 24   9   0   5  16  
# 13  18   3  22  11  
#  1  23  12  17   4  
# --------------------
# 
# DEBUG: Board state updated
#  0   0   0   0   0  
#  0   0   0   0   0  
#  0   0   0   0   0  
#  0   0   0   0   3  
#  0   0   1   0   0  
# --------------------
# 
# DEBUG: Board state updated
#  0   0   0   0   0  
#  0   0   0   4   0  
#  0   0   0   0   0  
#  0   0   0   0   3  
#  0   0   1   0   0  
# --------------------
# 
# DEBUG: Board state updated
#  0   5   0   0   0  
#  0   0   0   4   0  
#  0   0   0   0   0  
#  0   0   0   0   3  
#  0   0   1   0   0  
# --------------------
# 
# DEBUG: Board state updated
#  0   5   0   0   0  
#  0   0   0   4   0  
#  6   0   0   0   0  
#  0   0   0   0   3  
#  0   0   1   0   0  
# --------------------
# 
# DEBUG: Board state updated
#  0   5   0   0   0  
#  0   0   0   4   0  
#  6   0   0   0   0  
#  0   0   0   0   3  
#  0   7   1   0   0  
# --------------------
# 
# DEBUG: Board state updated
#  0   5   0   0   0  
#  0   0   0   4   0  
#  6   0   0   0   0  
#  0   0   0   8   3  
#  0   7   1   0   0  
# --------------------
# 
# DEBUG: Board state updated
#  0   5   0   0   0  
#  0   0   0   4   9  
#  6   0   0   0   0  
#  0   0   0   8   3  
#  0   7   1   0   0  
# --------------------
# 
# DEBUG: Board state updated
#  0   5  10   0   0  
#  0   0   0   4   9  
#  6   0   0   0   0  
#  0   0   0   8   3  
#  0   7   1   0   0  
# --------------------
# 
# DEBUG: Board state updated
#  0   5  10   0   0  
#  0   0   0   4   9  
#  6  11   0   0   0  
#  0   0   0   8   3  
#  0   7   1   0   0  
# --------------------
# 
# DEBUG: Board state updated
#  0   5  10   0   0  
#  0   0   0   4   9  
#  6  11   0   0   0  
#  0   0   0   8   3  
# 12   7   1   0   0  
# --------------------
# 
# DEBUG: Board state updated
#  0   5  10   0   0  
#  0   0   0   4   9  
#  6  11   0   0   0  
#  0   0  13   8   3  
# 12   7   1   0   0  
# --------------------
# 
# DEBUG: Board state updated
#  0   5  10   0   0  
#  0   0   0   4   9  
#  6  11   0   0   0  
#  0   0  13   8   3  
# 12   7   1   0  14  
# --------------------
# 
# DEBUG: Board state updated
#  0   5  10   0   0  
#  0   0   0   4   9  
#  6  11   0  15   0  
#  0   0  13   8   3  
# 12   7   1   0  14  
# --------------------
# 
# DEBUG: Board state updated
#  0   5  10   0  16  
#  0   0   0   4   9  
#  6  11   0  15   0  
#  0   0  13   8   3  
# 12   7   1   0  14  
# --------------------
# 
# DEBUG: Board state updated
#  0   5  10   0  16  
#  0   0  17   4   9  
#  6  11   0  15   0  
#  0   0  13   8   3  
# 12   7   1   0  14  
# --------------------
# 
# DEBUG: Board state updated
# 18   5  10   0  16  
#  0   0  17   4   9  
#  6  11   0  15   0  
#  0   0  13   8   3  
# 12   7   1   0  14  
# --------------------
# 
# DEBUG: Board state updated
# 18   5  10   0  16  
#  0   0  17   4   9  
#  6  11   0  15   0  
#  0   0  13   8   3  
# 12   7   1   0  14  
# --------------------
# 
# DEBUG: Board state updated
# 18   5  10   0  16  
#  0  20  17   4   9  
#  6  11   0  15   0  
#  0   0  13   8   3  
# 12   7   1   0  14  
# --------------------
# 
# DEBUG: Board state updated
# 18   5  10   0  16  
#  0  20  17   4   9  
#  6  11   0  15   0  
# 21   0  13   8   3  
# 12   7   1   0  14  
# --------------------
# 
# DEBUG: Board state updated
# 18   5  10   0  16  
#  0  20  17   4   9  
#  6  11  22  15   0  
# 21   0  13   8   3  
# 12   7   1   0  14  
# --------------------
# 
# DEBUG: Board state updated
# 18   5  10   0  16  
# 23  20  17   4   9  
#  6  11  22  15   0  
# 21   0  13   8   3  
# 12   7   1   0  14  
# --------------------
# 
# DEBUG: Board state updated
# 18   5  10   0  16  
# 23  20  17   4   9  
#  6  11  22  15   0  
# 21  24  13   8   3  
# 12   7   1   0  14  
# --------------------
# 
# DEBUG: Board state updated
# 18   5  10   0  16  
# 23  20  17   4   9  
#  6  11  22  15   0  
# 21  24  13   8   3  
# 12   7   1  25  14  
# --------------------
# 
# SUCCESS: Solution found starting at x=2, y=0.
# 18   5  10   0  16  
# 23  20  17   4   9  
#  6  11  22  15   0  
# 21  24  13   8   3  
# 12   7   1  25  14  
# --------------------
# 
# DEBUG: Board state updated
#  0   0   0   0   0  
#  0   0   0   0   0  
#  0   0   0   0   0  
#  0   0   3   0   0  
#  0   0   0   0   1  
# --------------------
# 
# DEBUG: Board state updated
#  0   0   0   0   0  
#  0   0   0   0   0  
#  0   0   0   0   0  
#  0   0   3   0   0  
#  4   0   0   0   1  
# --------------------
# 
# DEBUG: Board state updated
#  0   0   0   0   0  
#  0   0   0   0   0  
#  0   5   0   0   0  
#  0   0   3   0   0  
#  4   0   0   0   1  
# --------------------
# 
# DEBUG: Board state updated
#  6   0   0   0   0  
#  0   0   0   0   0  
#  0   5   0   0   0  
#  0   0   3   0   0  
#  4   0   0   0   1  
# --------------------
# 
# DEBUG: Board state updated
#  6   0   0   0   0  
#  0   0   7   0   0  
#  0   5   0   0   0  
#  0   0   3   0   0  
#  4   0   0   0   1  
# --------------------
# 
# DEBUG: Board state updated
#  6   0   0   0   8  
#  0   0   7   0   0  
#  0   5   0   0   0  
#  0   0   3   0   0  
#  4   0   0   0   1  
# --------------------
# 
# DEBUG: Board state updated
#  6   0   0   0   8  
#  0   0   7   0   0  
#  0   5   0   9   0  
#  0   0   3   0   0  
#  4   0   0   0   1  
# --------------------
# 
# DEBUG: Board state updated
#  6   0   0   0   8  
#  0   0   7   0   0  
#  0   5   0   9   0  
#  0   0   3   0   0  
#  4   0  10   0   1  
# --------------------
# 
# DEBUG: Board state updated
#  6   0   0   0   8  
#  0   0   7   0   0  
#  0   5   0   9   0  
#  0   0   3   0  11  
#  4   0  10   0   1  
# --------------------
# 
# DEBUG: Board state updated
#  6   0   0   0   8  
#  0   0   7  12   0  
#  0   5   0   9   0  
#  0   0   3   0  11  
#  4   0  10   0   1  
# --------------------
# 
# DEBUG: Board state updated
#  6  13   0   0   8  
#  0   0   7  12   0  
#  0   5   0   9   0  
#  0   0   3   0  11  
#  4   0  10   0   1  
# --------------------
# 
# DEBUG: Board state updated
#  6  13   0   0   8  
#  0   0   7  12   0  
# 14   5   0   9   0  
#  0   0   3   0  11  
#  4   0  10   0   1  
# --------------------
# 
# DEBUG: Board state updated
#  6  13   0   0   8  
#  0   0   7  12   0  
# 14   5   0   9   0  
#  0   0   3   0  11  
#  4  15  10   0   1  
# --------------------
# 
# DEBUG: Board state updated
#  6  13   0   0   8  
#  0   0   7  12   0  
# 14   5   0   9   0  
#  0   0   3  16  11  
#  4  15  10   0   1  
# --------------------
# 
# DEBUG: Board state updated
#  6  13   0   0   8  
#  0   0   7  12  17  
# 14   5   0   9   0  
#  0   0   3  16  11  
#  4  15  10   0   1  
# --------------------
# 
# DEBUG: Board state updated
#  6  13  18   0   8  
#  0   0   7  12  17  
# 14   5   0   9   0  
#  0   0   3  16  11  
#  4  15  10   0   1  
# --------------------
# 
# DEBUG: Board state updated
#  6  13  18   0   8  
# 19   0   7  12  17  
# 14   5   0   9   0  
#  0   0   3  16  11  
#  4  15  10   0   1  
# --------------------
# 
# DEBUG: Board state updated
#  6  13  18   0   8  
# 19   0   7  12  17  
# 14   5   0   9   0  
#  0  20   3  16  11  
#  4  15  10   0   1  
# --------------------
# 
# DEBUG: Board state updated
#  6  13  18   0   8  
# 19   0   7  12  17  
# 14   5   0   9   0  
#  0  20   3  16  11  
#  4  15  10  21   1  
# --------------------
# 
# DEBUG: Board state updated
#  6  13  18   0   8  
# 19   0   7  12  17  
# 14   5   0   9  22  
#  0  20   3  16  11  
#  4  15  10  21   1  
# --------------------
# 
# DEBUG: Board state updated
#  6  13  18  23   8  
# 19   0   7  12  17  
# 14   5   0   9  22  
#  0  20   3  16  11  
#  4  15  10  21   1  
# --------------------
# 
# DEBUG: Board state updated
#  6  13  18  23   8  
# 19   0   7  12  17  
# 14   5  24   9  22  
#  0  20   3  16  11  
#  4  15  10  21   1  
# --------------------
# 
# DEBUG: Board state updated
#  6  13  18  23   8  
# 19   0   7  12  17  
# 14   5  24   9  22  
# 25  20   3  16  11  
#  4  15  10  21   1  
# --------------------
# 
# SUCCESS: Solution found starting at x=4, y=0.
#  6  13  18  23   8  
# 19   0   7  12  17  
# 14   5  24   9  22  
# 25  20   3  16  11  
#  4  15  10  21   1  
# --------------------
# 
# DEBUG: Board state updated
#  0   0   0   0   0  
#  0   0   0   0   0  
#  0   0   0   0   0  
#  0   1   0   0   0  
#  0   0   0   3   0  
# --------------------
# 
# DEBUG: Board state updated
#  0   0   0   0   0  
#  0   0   0   0   0  
#  0   0   0   0   4  
#  0   1   0   0   0  
#  0   0   0   3   0  
# --------------------
# 
# DEBUG: Board state updated
#  0   0   0   5   0  
#  0   0   0   0   0  
#  0   0   0   0   4  
#  0   1   0   0   0  
#  0   0   0   3   0  
# --------------------
# 
# DEBUG: Board state updated
#  0   0   0   5   0  
#  0   6   0   0   0  
#  0   0   0   0   4  
#  0   1   0   0   0  
#  0   0   0   3   0  
# --------------------
# 
# DEBUG: Board state updated
#  0   0   0   5   0  
#  0   6   0   0   0  
#  0   0   0   0   4  
#  7   1   0   0   0  
#  0   0   0   3   0  
# --------------------
# 
# DEBUG: Board state updated
#  0   0   0   5   0  
#  0   6   0   0   0  
#  0   0   0   0   4  
#  7   1   0   0   0  
#  0   0   8   3   0  
# --------------------
# 
# DEBUG: Board state updated
#  0   0   0   5   0  
#  0   6   0   0   0  
#  0   0   0   0   4  
#  7   1   0   0   9  
#  0   0   8   3   0  
# --------------------
# 
# DEBUG: Board state updated
#  0   0   0   5   0  
#  0   6   0  10   0  
#  0   0   0   0   4  
#  7   1   0   0   9  
#  0   0   8   3   0  
# --------------------
# 
# DEBUG: Board state updated
#  0  11   0   5   0  
#  0   6   0  10   0  
#  0   0   0   0   4  
#  7   1   0   0   9  
#  0   0   8   3   0  
# --------------------
# 
# DEBUG: Board state updated
#  0  11   0   5   0  
#  0   6   0  10   0  
#  0   0  12   0   4  
#  7   1   0   0   9  
#  0   0   8   3   0  
# --------------------
# 
# DEBUG: Board state updated
#  0  11   0   5   0  
# 13   6   0  10   0  
#  0   0  12   0   4  
#  7   1   0   0   9  
#  0   0   8   3   0  
# --------------------
# 
# DEBUG: Board state updated
#  0  11  14   5   0  
# 13   6   0  10   0  
#  0   0  12   0   4  
#  7   1   0   0   9  
#  0   0   8   3   0  
# --------------------
# 
# DEBUG: Board state updated
#  0  11  14   5   0  
# 13   6   0  10  15  
#  0   0  12   0   4  
#  7   1   0   0   9  
#  0   0   8   3   0  
# --------------------
# 
# DEBUG: Board state updated
#  0  11  14   5   0  
# 13   6   0  10  15  
#  0   0  12   0   4  
#  7   1   0  16   9  
#  0   0   8   3   0  
# --------------------
# 
# DEBUG: Board state updated
#  0  11  14   5   0  
# 13   6   0  10  15  
#  0   0  12   0   4  
#  7   1   0  16   9  
#  0  17   8   3   0  
# --------------------
# 
# DEBUG: Board state updated
#  0  11  14   5   0  
# 13   6   0  10  15  
# 18   0  12   0   4  
#  7   1   0  16   9  
#  0  17   8   3   0  
# --------------------
# 
# DEBUG: Board state updated
#  0  11  14   5   0  
# 13   6  19  10  15  
# 18   0  12   0   4  
#  7   1   0  16   9  
#  0  17   8   3   0  
# --------------------
# 
# DEBUG: Board state updated
#  0  11  14   5  20  
# 13   6  19  10  15  
# 18   0  12   0   4  
#  7   1   0  16   9  
#  0  17   8   3   0  
# --------------------
# 
# DEBUG: Board state updated
#  0  11  14   5  20  
# 13   6  19  10  15  
# 18   0  12  21   4  
#  7   1   0  16   9  
#  0  17   8   3   0  
# --------------------
# 
# DEBUG: Board state updated
#  0  11  14   5  20  
# 13   6  19  10  15  
# 18   0  12  21   4  
#  7   1   0  16   9  
#  0  17   8   3  22  
# --------------------
# 
# DEBUG: Board state updated
#  0  11  14   5  20  
# 13   6  19  10  15  
# 18   0  12  21   4  
#  7   1  23  16   9  
#  0  17   8   3  22  
# --------------------
# 
# DEBUG: Board state updated
#  0  11  14   5  20  
# 13   6  19  10  15  
# 18   0  12  21   4  
#  7   1  23  16   9  
# 24  17   8   3  22  
# --------------------
# 
# DEBUG: Board state updated
#  0  11  14   5  20  
# 13   6  19  10  15  
# 18  25  12  21   4  
#  7   1  23  16   9  
# 24  17   8   3  22  
# --------------------
# 
# SUCCESS: Solution found starting at x=1, y=1.
#  0  11  14   5  20  
# 13   6  19  10  15  
# 18  25  12  21   4  
#  7   1  23  16   9  
# 24  17   8   3  22  
# --------------------
# 
# DEBUG: Board state updated
#  0   0   0   0   0  
#  0   0   0   0   0  
#  0   0   0   0   0  
#  0   0   0   1   0  
#  0   3   0   0   0  
# --------------------
# 
# DEBUG: Board state updated
#  0   0   0   0   0  
#  0   0   0   0   0  
#  4   0   0   0   0  
#  0   0   0   1   0  
#  0   3   0   0   0  
# --------------------
# 
# DEBUG: Board state updated
#  0   5   0   0   0  
#  0   0   0   0   0  
#  4   0   0   0   0  
#  0   0   0   1   0  
#  0   3   0   0   0  
# --------------------
# 
# DEBUG: Board state updated
#  0   5   0   0   0  
#  0   0   0   6   0  
#  4   0   0   0   0  
#  0   0   0   1   0  
#  0   3   0   0   0  
# --------------------
# 
# DEBUG: Board state updated
#  0   5   0   0   0  
#  0   0   0   6   0  
#  4   0   0   0   0  
#  0   0   0   1   7  
#  0   3   0   0   0  
# --------------------
# 
# DEBUG: Board state updated
#  0   5   0   0   0  
#  0   0   0   6   0  
#  4   0   0   0   0  
#  0   0   0   1   7  
#  0   3   8   0   0  
# --------------------
# 
# DEBUG: Board state updated
#  0   5   0   0   0  
#  0   0   0   6   0  
#  4   0   0   0   0  
#  9   0   0   1   7  
#  0   3   8   0   0  
# --------------------
# 
# DEBUG: Board state updated
#  0   5   0   0   0  
#  0  10   0   6   0  
#  4   0   0   0   0  
#  9   0   0   1   7  
#  0   3   8   0   0  
# --------------------
# 
# DEBUG: Board state updated
#  0   5   0  11   0  
#  0  10   0   6   0  
#  4   0   0   0   0  
#  9   0   0   1   7  
#  0   3   8   0   0  
# --------------------
# 
# DEBUG: Board state updated
#  0   5   0  11   0  
#  0  10   0   6   0  
#  4   0   0   0  12  
#  9   0   0   1   7  
#  0   3   8   0   0  
# --------------------
# 
# DEBUG: Board state updated
#  0   5   0  11   0  
#  0  10   0   6   0  
#  4   0   0   0  12  
#  9   0   0   1   7  
#  0   3   8  13   0  
# --------------------
# 
# DEBUG: Board state updated
#  0   5   0  11   0  
#  0  10   0   6   0  
#  4   0  14   0  12  
#  9   0   0   1   7  
#  0   3   8  13   0  
# --------------------
# 
# DEBUG: Board state updated
#  0   5   0  11   0  
#  0  10   0   6  15  
#  4   0  14   0  12  
#  9   0   0   1   7  
#  0   3   8  13   0  
# --------------------
# 
# DEBUG: Board state updated
#  0   5  16  11   0  
#  0  10   0   6  15  
#  4   0  14   0  12  
#  9   0   0   1   7  
#  0   3   8  13   0  
# --------------------
# 
# DEBUG: Board state updated
#  0   5  16  11   0  
# 17  10   0   6  15  
#  4   0  14   0  12  
#  9   0   0   1   7  
#  0   3   8  13   0  
# --------------------
# 
# DEBUG: Board state updated
#  0   5  16  11   0  
# 17  10   0   6  15  
#  4   0  14   0  12  
#  9  18   0   1   7  
#  0   3   8  13   0  
# --------------------
# 
# DEBUG: Board state updated
#  0   5  16  11   0  
# 17  10   0   6  15  
#  4   0  14  19  12  
#  9  18   0   1   7  
#  0   3   8  13   0  
# --------------------
# 
# DEBUG: Board state updated
#  0   5  16  11   0  
# 17  10   0   6  15  
#  4   0  14  19  12  
#  9  18   0   1   7  
#  0   3   8  13  20  
# --------------------
# 
# DEBUG: Board state updated
#  0   5  16  11   0  
# 17  10   0   6  15  
#  4   0  14  19  12  
#  9  18  21   1   7  
#  0   3   8  13  20  
# --------------------
# 
# DEBUG: Board state updated
#  0   5  16  11   0  
# 17  10   0   6  15  
#  4   0  14  19  12  
#  9  18  21   1   7  
# 22   3   8  13  20  
# --------------------
# 
# DEBUG: Board state updated
#  0   5  16  11   0  
# 17  10   0   6  15  
#  4  23  14  19  12  
#  9  18  21   1   7  
# 22   3   8  13  20  
# --------------------
# 
# DEBUG: Board state updated
# 24   5  16  11   0  
# 17  10   0   6  15  
#  4  23  14  19  12  
#  9  18  21   1   7  
# 22   3   8  13  20  
# --------------------
# 
# DEBUG: Board state updated
# 24   5  16  11   0  
# 17  10  25   6  15  
#  4  23  14  19  12  
#  9  18  21   1   7  
# 22   3   8  13  20  
# --------------------
# 
# SUCCESS: Solution found starting at x=3, y=1.
# 24   5  16  11   0  
# 17  10  25   6  15  
#  4  23  14  19  12  
#  9  18  21   1   7  
# 22   3   8  13  20  
# --------------------
# 
# DEBUG: Board state updated
#  0   0   0   0   0  
#  0   0   0   0   0  
#  1   0   0   0   0  
#  0   0   0   0   0  
#  0   3   0   0   0  
# --------------------
# 
# DEBUG: Board state updated
#  0   0   0   0   0  
#  0   0   0   0   0  
#  1   0   0   0   0  
#  0   0   0   4   0  
#  0   3   0   0   0  
# --------------------
# 
# DEBUG: Board state updated
#  0   0   0   0   0  
#  0   0   0   0   5  
#  1   0   0   0   0  
#  0   0   0   4   0  
#  0   3   0   0   0  
# --------------------
# 
# DEBUG: Board state updated
#  0   0   6   0   0  
#  0   0   0   0   5  
#  1   0   0   0   0  
#  0   0   0   4   0  
#  0   3   0   0   0  
# --------------------
# 
# DEBUG: Board state updated
#  0   0   6   0   0  
#  7   0   0   0   5  
#  1   0   0   0   0  
#  0   0   0   4   0  
#  0   3   0   0   0  
# --------------------
# 
# DEBUG: Board state updated
#  0   0   6   0   0  
#  7   0   0   0   5  
#  1   0   0   0   0  
#  0   8   0   4   0  
#  0   3   0   0   0  
# --------------------
# 
# DEBUG: Board state updated
#  0   0   6   0   0  
#  7   0   0   0   5  
#  1   0   0   0   0  
#  0   8   0   4   0  
#  0   3   0   9   0  
# --------------------
# 
# DEBUG: Board state updated
#  0   0   6   0   0  
#  7   0   0   0   5  
#  1   0   0   0  10  
#  0   8   0   4   0  
#  0   3   0   9   0  
# --------------------
# 
# DEBUG: Board state updated
#  0   0   6   0   0  
#  7   0  11   0   5  
#  1   0   0   0  10  
#  0   8   0   4   0  
#  0   3   0   9   0  
# --------------------
# 
# DEBUG: Board state updated
#  0   0   6   0  12  
#  7   0  11   0   5  
#  1   0   0   0  10  
#  0   8   0   4   0  
#  0   3   0   9   0  
# --------------------
# 
# DEBUG: Board state updated
#  0   0   6   0  12  
#  7   0  11   0   5  
#  1   0   0  13  10  
#  0   8   0   4   0  
#  0   3   0   9   0  
# --------------------
# 
# DEBUG: Board state updated
#  0   0   6   0  12  
#  7   0  11   0   5  
#  1   0   0  13  10  
#  0   8   0   4   0  
#  0   3   0   9  14  
# --------------------
# 
# DEBUG: Board state updated
#  0   0   6   0  12  
#  7   0  11   0   5  
#  1   0   0  13  10  
#  0   8  15   4   0  
#  0   3   0   9  14  
# --------------------
# 
# DEBUG: Board state updated
#  0   0   6   0  12  
#  7   0  11   0   5  
#  1   0   0  13  10  
#  0   8  15   4   0  
# 16   3   0   9  14  
# --------------------
# 
# DEBUG: Board state updated
#  0   0   6   0  12  
#  7   0  11   0   5  
#  1  17   0  13  10  
#  0   8  15   4   0  
# 16   3   0   9  14  
# --------------------
# 
# DEBUG: Board state updated
# 18   0   6   0  12  
#  7   0  11   0   5  
#  1  17   0  13  10  
#  0   8  15   4   0  
# 16   3   0   9  14  
# --------------------
# 
# DEBUG: Board state updated
# 18   0   6   0  12  
#  7   0  11   0   5  
#  1  17   0  13  10  
#  0   8  15   4   0  
# 16   3   0   9  14  
# --------------------
# 
# DEBUG: Board state updated
# 18   0   6   0  12  
#  7   0  11  20   5  
#  1  17   0  13  10  
#  0   8  15   4   0  
# 16   3   0   9  14  
# --------------------
# 
# DEBUG: Board state updated
# 18  21   6   0  12  
#  7   0  11  20   5  
#  1  17   0  13  10  
#  0   8  15   4   0  
# 16   3   0   9  14  
# --------------------
# 
# DEBUG: Board state updated
# 18  21   6   0  12  
#  7   0  11  20   5  
#  1  17  22  13  10  
#  0   8  15   4   0  
# 16   3   0   9  14  
# --------------------
# 
# DEBUG: Board state updated
# 18  21   6   0  12  
#  7   0  11  20   5  
#  1  17  22  13  10  
#  0   8  15   4  23  
# 16   3   0   9  14  
# --------------------
# 
# DEBUG: Board state updated
# 18  21   6   0  12  
#  7   0  11  20   5  
#  1  17  22  13  10  
#  0   8  15   4  23  
# 16   3  24   9  14  
# --------------------
# 
# DEBUG: Board state updated
# 18  21   6   0  12  
#  7   0  11  20   5  
#  1  17  22  13  10  
# 25   8  15   4  23  
# 16   3  24   9  14  
# --------------------
# 
# SUCCESS: Solution found starting at x=0, y=2.
# 18  21   6   0  12  
#  7   0  11  20   5  
#  1  17  22  13  10  
# 25   8  15   4  23  
